Data Visualization
…
Most of the job advertisements fall into the Data Scientist category.

1.3 Analysis of the required Software packages for jobs

## # A tibble: 1,538 x 2
##    Job_title                                   RequiredSoftwares
##    <chr>                                       <chr>            
##  1 Junior Data Scientist                       R                
##  2 Junior Data Scientist                       Python           
##  3 Junior Data Scientist                       cloud_storage    
##  4 Engineer, Analytics & Data Science          Python           
##  5 CI-Statistical Analyst/Business Analyst-CMB R                
##  6 CI-Statistical Analyst/Business Analyst-CMB SAS              
##  7 CI-Statistical Analyst/Business Analyst-CMB SPSS             
##  8 CI-Statistical Analyst/Business Analyst-CMB SQL              
##  9 DA-Data Analyst-CMB                         SAS              
## 10 DA-Data Analyst-CMB                         SPSS             
## # ... with 1,528 more rows
…
