Data Visualisation
…
Figure 01 shows that majority of job advertisements in the data set are related to the data scientist jobs. And also there is a higher amount of jobs related to the a Data Analyst jobs.

1.2Analysis of Software

## # A tibble: 36 x 2
##    RequiredSoftwares no_rows
##    <chr>               <int>
##  1 Python                281
##  2 SQL                   238
##  3 R                     209
##  4 Ms Excel               83
##  5 SAS                    80
##  6 Tableau                73
##  7 cloud_storage          65
##  8 Java                   42
##  9 Hadoop                 41
## 10 MySQL                  41
## # ... with 26 more rows
…
Above Word Cloud shows the software under other option of figure 02.By seeing this figure we can say that Tableau and Cloud Storage are the most required software in the other option of figure 02.

1.3 Analysis of Countries

## # A tibble: 30 x 2
##    Location  no_rows
##    <chr>       <int>
##  1 USA            91
##  2 India          85
##  3 Sri Lanka      64
##  4 Singapore      32
##  5 Australia      31
##  6 UK             26
##  7 Canada         22
##  8 China          20
##  9 Malaysia       12
## 10 Japan           6
## # ... with 20 more rows
…
