…
<div class="knitr-options" data-fig-width="576" data-fig-height="460"></div>


```
# A tibble: 147 x 115
      ID Consultant DateRetrieved DatePublished Job_title Company R     SAS  
   <int> <chr>      <date>        <date>        <chr>     <chr>   <fct> <fct>
 1     5 Jayani     2020-08-07    2020-07-24    DA-Data … E.D. B… 0     1    
 2    10 Jayani     2020-08-12    2020-08-11    Associat… Phrees… 1     0    
 3    12 Jayani     2020-08-13    2020-08-13    Data Ana… EPCOR … 0     0    
 4    15 Jayani     2020-08-13    2020-08-13    Lead Dig… Nation… 0     0    
 5    19 Jayani     2020-08-13    2020-08-13    Data Ana… Univer… 0     1    
 6    23 Jayani     2020-08-13    2020-08-13    Data Sci… Teleno… 1     0    
 7    27 Jayani     2020-08-13    2020-08-13    Smart Ma… Micron… 0     0    
 8    39 Jayani     2020-08-13    2020-08-13    Assistan… UNILEV… 1     1    
 9    55 Thimani    2020-08-07    2020-07-22    Data Sci… Amazon  1     1    
10    56 Thimani    2020-08-07    2020-07-31    Data Sci… Brilli… 1     1    
# … with 137 more rows, and 107 more variables: SPSS <fct>, Python <fct>,
#   MAtlab <fct>, Scala <fct>, C_Sharp <fct>, MS_Word <fct>, Ms_Excel <fct>,
#   OLE_DB <fct>, Ms_Access <fct>, Ms_PowerPoint <fct>, Spreadsheets <fct>,
#   Data_visualization <fct>, Presentation_Skills <fct>, Communication <fct>,
#   BigData <fct>, Data_warehouse <fct>, cloud_storage <fct>,
#   Google_Cloud <fct>, AWS <fct>, Machine_Learning <fct>, Deep_Learning <fct>,
#   Computer_vision <fct>, Java <fct>, Cpp <fct>, C <fct>, Linux_Unix <fct>,
#   SQL <fct>, NoSQL <fct>, RDBMS <fct>, Oracle <fct>, MySQL <fct>, PHP <fct>,
#   Flash_Actionscript <fct>, SPL <fct>,
…
