EDA
…
##  [1] "Sri Lanka"            "Malaysia"             "Canada"              
##  [4] "Africa"               "Singapore"            "India"               
##  [7] "UK"                   "Australia"            "USA"                 
## [10] "New zealand"          "Russia"               "Japan"               
## [13] "China"                "Scotland"             "Germany"             
## [16] "ES"                   "IE"                   "Hungary"             
## [19] "RO"                   "United Arab Emirates" "Philippines"         
## [22] "Italy"                "Colorado"             "Kenya"               
## [25] "NA"                   "Brazil"               "Texas"               
## [28] "Utah"                 "OR"                   "Seattle"

rename(Data,"Country"=Location)

## # A tibble: 429 x 108
##       ID Consultant DateRetrieved DatePublished Job_title Company     R   SAS
##    <dbl> <chr>      <chr>         <chr>         <chr>     <chr>   <dbl> <dbl>
##  1     2 Jayani     44020         31/07/2020    Junior D~ Dialog~     1     0
##  2     3 Jayani     44020         43990         Engineer~ London~     0     0
##  3     4 Jayani     44020         24/07/2020    CI-Stati~ E.D. B~     1     1
##  4     5 Jayani     44020         24/07/2020    DA-Data ~ E.D. B~     0     1
##  5     6 Jayani     44020         13/08/2020    Data Sci~ Emirat~     1     0
##  6     7 Jayani     13/08/2020    13/08/2020    Principa~ BHP Gr~     1     0
##  7     8 Jayani     44020         24/07/2020    DV-Data ~ E.D. B~     0     0
##  8     9 Jayani     13/08/2020    13/08/2020    Product ~ Numera~     0     0
##  9    10 Jayani     44173         44143         Associat~ Phrees~     1     0
## 10    11 Jayani     13/08/2020    13/08/2020    Data Eng~ SDK         0     0
## # ... with 419 more rows, and 100 more variables: SPSS <dbl>, Python <dbl>,
## #   MAtlab <dbl>, Scala <dbl>, `C#` <dbl>, `MS Word` <dbl>, `Ms Excel` <dbl>,
## #   `OLE/DB` <dbl>, `Ms Access` <dbl>, `Ms PowerPoint` <dbl>,
## #   Spreadsheets <dbl>, Data_visualization <dbl>, Presentation_Skills <dbl>,
## #   Communication <dbl>, BigData <dbl>, Data_warehouse <dbl>,
## #   cloud_storage <dbl>, Google_Cloud <dbl>, AWS <dbl>, Machine_Learning <dbl>,
## #   `Deep Learning` <dbl>, Computer_vision <dbl>, Java <dbl>, `C++` <dbl>,
## #   C <dbl>, `Linux/Unix` <dbl>, SQL <dbl>, NoSQL <dbl>, RDBMS <dbl>,
## #   Oracle <dbl>, MySQL <dbl>, PHP <dbl>, Flash_Actionscript <dbl>, SPL <dbl>,
…
attach(Data2)
counts<-Data2%>%group_by(RequiredSoftwares)%>%summarise(no_rows=length(RequiredSoftwares))

## `summarise()` ungrouping output (override with `.groups` argument)

counts

## # A tibble: 36 x 2
##    RequiredSoftwares no_rows
##    <chr>               <int>
##  1 Bash                    1
##  2 C                       6
##  3 C#                      2
##  4 C++                    16
##  5 cloud_storage          65
##  6 Google_Cloud            5
##  7 Hadoop                 41
##  8 Hive                   28
##  9 Impala                  5
## 10 Java                   42
## # ... with 26 more rows

arrange(counts,desc(counts$no_rows))

## # A tibble: 36 x 2
##    RequiredSoftwares no_rows
##    <chr>               <int>
##  1 Python                281
##  2 SQL                   238
##  3 R                     209
##  4 Ms Excel               83
##  5 SAS                    80
##  6 Tableau                73
##  7 cloud_storage          65
##  8 Java                   42
##  9 Hadoop                 41
## 10 MySQL                  41
## # ... with 26 more rows
…
## [1] "junior data scientist"                      
## [2] "engineer  analytics & data science"         
## [3] "ci-statistical analyst/business analyst-cmb"
## [4] "da-data analyst-cmb"                        
## [5] "data scientist"                             
## [6] "principal hr data scientist"

DS<-Job_Titles[str_detect(Job_Titles,"([data]{3}\\s*[scientist]{7,9})")] %>% unique()
DE<-Job_Titles[str_detect(Job_Titles,"([data]{3}\\s*[engineer]{8})")]%>%unique()
DA<-Job_Titles[str_detect(Job_Titles,"([data]{3}\\s*[analyst]{7}|[analytics]{8,9})")]%>%unique()
Others<-Job_Titles[!(Job_Titles%in%c(DS,DE,DA))]
Data

## # A tibble: 429 x 108
##       ID Consultant DateRetrieved DatePublished Job_title Company     R   SAS
##    <dbl> <chr>      <chr>         <chr>         <chr>     <chr>   <dbl> <dbl>
##  1     2 Jayani     44020         31/07/2020    Junior D~ Dialog~     1     0
##  2     3 Jayani     44020         43990         Engineer~ London~     0     0
##  3     4 Jayani     44020         24/07/2020    CI-Stati~ E.D. B~     1     1
##  4     5 Jayani     44020         24/07/2020    DA-Data ~ E.D. B~     0     1
##  5     6 Jayani     44020         13/08/2020    Data Sci~ Emirat~     1     0
##  6     7 Jayani     13/08/2020    13/08/2020    Principa~ BHP Gr~     1     0
##  7     8 Jayani     44020         24/07/2020    DV-Data ~ E.D. B~     0     0
##  8     9 Jayani     13/08/2020    13/08/2020    Product ~ Numera~     0     0
##  9    10 Jayani     44173         44143         Associat~ Phrees~     1     0
## 10    11 Jayani     13/08/2020    13/08/2020    Data Eng~ SDK         0     0
## # ... with 419 more rows, and 100 more variables: SPSS <dbl>, Python <dbl>,
## #   MAtlab <dbl>, Scala <dbl>, `C#` <dbl>, `MS Word` <dbl>, `Ms Excel` <dbl>,
## #   `OLE/DB` <dbl>, `Ms Access` <dbl>, `Ms PowerPoint` <dbl>,
## #   Spreadsheets <dbl>, Data_visualization <dbl>, Presentation_Skills <dbl>,
## #   Communication <dbl>, BigData <dbl>, Data_warehouse <dbl>,
## #   cloud_storage <dbl>, Google_Cloud <dbl>, AWS <dbl>, Machine_Learning <dbl>,
## #   `Deep Learning` <dbl>, Computer_vision <dbl>, Java <dbl>, `C++` <dbl>,
## #   C <dbl>, `Linux/Unix` <dbl>, SQL <dbl>, NoSQL <dbl>, RDBMS <dbl>,
## #   Oracle <dbl>, MySQL <dbl>, PHP <dbl>, Flash_Actionscript <dbl>, SPL <dbl>,
…
attach(Data5)
counts2<-Data5%>%group_by(KnowledgeAndSkills)%>%summarise(no_rows2=length(KnowledgeAndSkills))

## `summarise()` ungrouping output (override with `.groups` argument)

arrange(counts2,desc(counts2$no_rows2))

## # A tibble: 54 x 2
##    KnowledgeAndSkills               no_rows2
##    <chr>                               <int>
##  1 Communication                         216
##  2 Machine_Learning                      195
##  3 BigData                               126
##  4 Team_Handling                         113
##  5 Data_science                          105
##  6 Problem_Solving                        90
##  7 Presentation_Skills                    77
##  8 Data_mining                            54
##  9 AI                                     52
## 10 Natural_Language_Processing(NLP)       52
## # ... with 44 more rows
